…
17.8% (n=13)
</td>
</tr>
</tbody>
</table>
</div>
<!--/html_preserve-->
``` r
concepts %>% 
  group_by(id) %>% 
  filter(finales_konzept == min(finales_konzept)) %>% 
  distinct(id, .keep_all = TRUE)
```

    ## # A tibble: 268 x 15
    ## # Groups:   id [268]
    ##    id    id_mapper chapter kapitelbezeichn… bezeichnung finaler_beschlu…
    ##    <chr> <chr>     <chr>   <glue>           <chr>       <chr>           
    ##  1 1     9f6       01-01   01 Stammdaten    Geburtsdat… ddmmyyyy        
    ##  2 2     605       01-02   01 Stammdaten    Geschlecht  1 „männlich“    
    ##  3 3     9f6       01-02   01 Stammdaten    Geschlecht  2 „weiblich“    
    ##  4 4     9f6       01-02   01 Stammdaten    Geschlecht  Geschlecht      
    ##  5 5     605       01-03   01 Stammdaten    Versichert… 1 „GKV ohne Zus…
    ##  6 6     605       01-03   01 Stammdaten    Versichert… 2 „GKV mit staa…
    ##  7 7     605       01-03   01 Stammdaten    Versichert… 3 „PKV“         
    ##  8 8     605       01-03   01 Stammdaten    Versichert… 4 „nicht krankv…
    ##  9 9     605       01-03   01 Stammdaten    Versichert… 5 „anders krank…
    ## 10 10    83f       01-03   01 Stammdaten    Versichert… Versichertensta…
    ## # … with 258 more rows, and 9 more variables: snomed_code <chr>,
    ## #   descriptor <chr>, equ_jens <ord>, equ_mareike <ord>, equi_final <ord>,
    ## #   finales_konzept <chr>, agreement <chr>, map <chr>, kapitel <chr>
…
